…
This data is huge, with 450,000 accounts.
So who in the `not_yet_follows´ list shows up there most often?

follows_of_follows_count <- follows_of_follows |> 
  count(actor_handle, name = "n_following", sort = TRUE)
follows_of_follows_count

## # A tibble: 160,440 × 2
##    actor_handle              n_following
##    <chr>                           <int>
##  1 jbgruber.bsky.social              400
##  2 claesdevreese.bsky.social         352
##  3 rossdahlke.bsky.social            292
##  4 alessandronai.bsky.social         285
##  5 favstats.eu                       263
##  6 feloe.bsky.social                 263
##  7 jamoeberl.bsky.social             246
##  8 brendannyhan.bsky.social          226
##  9 fgilardi.bsky.social              225
## 10 dfreelon.bsky.social              224
## # ℹ 160,430 more rows
…
