…
We see that the data set ends with Obama’s last address.
So I will compare him against his predecessor first and then explore and easy pipeline to do a comparison to a number of others.

sotu <- sotu_meta %>%
  bind_cols(text = sotu_text) %>%
  mutate(docnames = paste(president, year, sep = ": "))
sotu

## # A tibble: 236 x 7
##    president    year years_active party sotu_type text           docnames  
##    <chr>       <int> <chr>        <chr> <chr>     <chr>          <chr>     
##  1 George Was…  1790 1789-1793    Nonp… speech    "Fellow-Citiz… George Wa…
##  2 George Was…  1790 1789-1793    Nonp… speech    "\n\n Fellow-… George Wa…
##  3 George Was…  1791 1789-1793    Nonp… speech    "\n\n Fellow-… George Wa…
##  4 George Was…  1792 1789-1793    Nonp… speech    "Fellow-Citiz… George Wa…
##  5 George Was…  1793 1793-1797    Nonp… speech    "\n\n Fellow-… George Wa…
##  6 George Was…  1794 1793-1797    Nonp… speech    "\n\n Fellow-… George Wa…
##  7 George Was…  1795 1793-1797    Nonp… speech    "\n\nFellow-C… George Wa…
##  8 George Was…  1796 1793-1797    Nonp… speech    "\n\n Fellow-… George Wa…
##  9 John Adams   1797 1797-1801    Fede… speech    "\n\n Gentlem… John Adam…
## 10 John Adams   1798 1797-1801    Fede… speech    "\n\n Gentlem… John Adam…
## # … with 226 more rows
…
